{
  "name": "icons",
  "css_prefix_text": "icon-",
  "css_use_suffix": false,
  "hinting": true,
  "units_per_em": 1000,
  "ascent": 850,
  "glyphs": [
    {
      "uid": "aec47313ed60b45181173a798d5cf25b",
      "css": "checkbox",
      "code": 59392,
      "src": "custom_icons",
      "selected": true,
      "svg": {
        "path": "M888.9 111.1V888.9H111.1V111.1H888.9M888.9 0H111.1C50 0 0 50 0 111.1V888.9C0 950 50 1000 111.1 1000H888.9C950 1000 1000 950 1000 888.9V111.1C1000 50 950 0 888.9 0L888.9 0Z",
        "width": 1000
      },
      "search": [
        "checkbox"
      ]
    },
    {
      "uid": "e1c76be7f83e2f83ed8b1e6e449c709c",
      "css": "checkbox-checked",
      "code": 59393,
      "src": "custom_icons",
      "selected": true,
      "svg": {
        "path": "M272.2 394.4L194.4 472.2 444.4 722.2 1000 166.7 922.2 88.9 444.4 566.7 272.2 394.4ZM888.9 888.9H111.1V111.1H666.7V0H111.1C50 0 0 50 0 111.1V888.9C0 950 50 1000 111.1 1000H888.9C950 1000 1000 950 1000 888.9V444.4H888.9V888.9Z",
        "width": 1000
      },
      "search": [
        "checkbox-checked"
      ]
    },
    {
      "uid": "97c0ee2bff1fb25078ce15f4fe963944",
      "css": "radio",
      "code": 59394,
      "src": "custom_icons",
      "selected": true,
      "svg": {
        "path": "M500 0C225 0 0 225 0 500S225 1000 500 1000 1000 775 1000 500 775 0 500 0ZM500 900C280 900 100 720 100 500S280 100 500 100 900 280 900 500 720 900 500 900Z",
        "width": 1000
      },
      "search": [
        "radio"
      ]
    },
    {
      "uid": "453d845f85df02fbafca597181130dd3",
      "css": "radio-checked",
      "code": 59395,
      "src": "custom_icons",
      "selected": true,
      "svg": {
        "path": "M500 250C360 250 250 360 250 500 250 640 360 750 500 750 640 750 750 640 750 500 750 360 640 250 500 250ZM500 0C225 0 0 225 0 500S225 1000 500 1000 1000 775 1000 500 775 0 500 0ZM500 900C280 900 100 720 100 500S280 100 500 100 900 280 900 500 720 900 500 900Z",
        "width": 1000
      },
      "search": [
        "radio-checked"
      ]
    },
    {
      "uid": "e82cedfa1d5f15b00c5a81c9bd731ea2",
      "css": "info-circled",
      "code": 59396,
      "src": "fontawesome"
    },
    {
      "uid": "b035c28eba2b35c6ffe92aee8b0df507",
      "css": "attention-circled",
      "code": 59397,
      "src": "fontawesome"
    },
    {
      "uid": "c76b7947c957c9b78b11741173c8349b",
      "css": "attention",
      "code": 59398,
      "src": "fontawesome"
    },
    {
      "uid": "0f4cae16f34ae243a6144c18a003f2d8",
      "css": "cancel-circled",
      "code": 59399,
      "src": "fontawesome"
    },
    {
      "uid": "8b80d36d4ef43889db10bc1f0dc9a862",
      "css": "user",
      "code": 59400,
      "src": "fontawesome"
    },
    {
      "uid": "c1f1975c885aa9f3dad7810c53b82074",
      "css": "lock",
      "code": 59401,
      "src": "fontawesome"
    },
    {
      "uid": "9dd9e835aebe1060ba7190ad2b2ed951",
      "css": "search",
      "code": 59402,
      "src": "fontawesome"
    },
    {
      "uid": "e0d15ef5945000f5f264acc35494002f",
      "css": "basket",
      "code": 59403,
      "src": "typicons"
    },
    {
      "uid": "8e04c98c8f5ca0a035776e3001ad2638",
      "css": "facebook",
      "code": 61594,
      "src": "fontawesome"
    },
    {
      "uid": "d9be617b7f2fe7843118ca2d3a1b8cca",
      "css": "down-open",
      "code": 61444,
      "src": "mfglabs"
    },
    {
      "uid": "b714be5a812a474811604f700dfc87ce",
      "css": "left-open",
      "code": 61447,
      "src": "mfglabs"
    },
    {
      "uid": "37910a1398001a5ccb541cb2a253a2c7",
      "css": "right-open",
      "code": 61446,
      "src": "mfglabs"
    },
    {
      "uid": "440e148d0e21100118eae7036bcd2067",
      "css": "up-open",
      "code": 61445,
      "src": "mfglabs"
    },
    {
      "uid": "ae4531c2e011f05db6b8bc1ab3949cad",
      "css": "box",
      "code": 59404,
      "src": "custom_icons",
      "selected": true,
      "svg": {
        "path": "M277 98.6C127.4 163.7 49.9 197.9 48.8 199.3 46.5 202.1 46.5 207.2 48.8 209.9 49.7 211 72.2 221.6 98.7 233.5L146.9 255 295.7 185.9C377.5 147.9 477.1 101.7 516.9 83.2 587.6 50.4 589.3 49.6 590.7 46.1 592.1 42.8 592.1 42.2 590.4 39.1 588.6 35.9 585.7 34.5 547.5 17.9 525 8.1 505.8 0 505 0.1 504.2 0.1 401.6 44.4 277 98.6ZM778.5 135.8C769.7 140 668.3 187.6 553.2 241.5 438.2 295.4 344 339.7 344 340 344 340.3 345.7 341.2 347.8 342.1 349.8 343 385.8 359.8 427.8 379.4 484 405.8 504.7 415.1 506.4 414.6 512.3 413.1 959.7 211.8 961.3 209.9 962.2 208.7 963 206.3 963 204.5 963 202.7 962.2 200.3 961.3 199.1 958.8 196.2 801.7 128 797.6 128.1 795.9 128.1 787.3 131.6 778.5 135.8ZM2.9 245.6L0.5 248.2 0.2 514.8C0 703.8 0.2 782.6 1 785.2 1.7 787.7 3 789.5 4.8 790.4 7 791.5 269 909.1 438.9 985.2 476.1 1001.8 477.1 1002.1 481 995.7 483 992.5 483 988.8 482.7 724.3 482.5 456.3 482.5 456.1 480.5 454 479.4 452.9 463.2 445.1 444.5 436.6 425.8 428.2 387.7 410.9 359.8 398.2L309 375.2 309 492.7 309 610.1 306.4 612.6C304.7 614.4 303.2 615 301.7 614.6 297.7 613.6 120.8 531.1 118.9 529.4 117.1 527.7 117 523.7 117 409.1L117 290.5 64.6 266.7C28.8 250.5 11.1 243 8.8 243 6.4 243 4.6 243.8 2.9 245.6ZM764.5 347.6C628.6 408.5 530.8 452.9 529.8 454.1 528.1 456.1 528 470.5 528 725.6 528 992.5 528 995 530 997 532.9 999.9 536.6 1000.5 540.8 998.8 543.8 997.6 778.1 892.6 963.9 809.2 987.2 798.7 1007 789.4 1007.9 788.5 1009.4 787.1 1009.5 762.6 1009.8 518L1010 249.2 1007.4 246.1C1005.4 243.6 1004.1 243 1001.2 243.1 998.5 243.1 932.1 272.4 764.5 347.6Z",
        "width": 1010
      },
      "search": [
        "box"
      ]
    },
    {
      "uid": "06ee8cea680f0911fd0a307e5c1fefe4",
      "css": "tube",
      "code": 59405,
      "src": "custom_icons",
      "selected": true,
      "svg": {
        "path": "M325.5 1C214.5 4.9 131.1 17.5 114.8 32.8L112 35.4 112 102.2 112 169 390.8 168.8 669.5 168.5 669.8 102.8 670 37.2 667.4 34C654.9 19.2 585 7.3 479 2 450.8 0.6 355.9 0 325.5 1ZM97.9 214.5C60.2 221.4 29 244.7 12.5 278.4 5.7 292.2 2.3 303.8 1 318.3 0.2 326 0 418.6 0.2 614 0.6 926.3 0.1 901.6 6.4 920.4 12.1 937.2 20 949.9 33.5 963.9 52.5 983.6 76.3 995.4 104 999 110 999.8 194.6 1000 395.5 999.7 658.5 999.4 679 999.3 685.3 997.7 709.8 991.6 728.9 981.1 745 965 758.1 952 767.3 937.1 773 920 779.3 901.3 779 919.1 779 606.3 779 408.8 778.7 318.8 777.9 313.4 773.9 284.5 758.3 257.3 735.2 238.8 722 228.3 707.3 221 688.9 215.9L680.5 213.5 393 213.3C152.4 213.2 104.3 213.4 97.9 214.5ZM675.8 304.5C681.7 307.7 684.9 311.1 688.3 317.4L690.5 321.5 690.8 398.2 691 475 390.5 475 90 475 90 400.1C90 318.7 89.8 321.2 95.6 312.8 98.6 308.6 104.2 304.4 109.7 302.4 112.9 301.3 159.3 301.1 392 301.3L670.5 301.5 675.8 304.5Z",
        "width": 779
      },
      "search": [
        "tube"
      ]
    },
    {
      "uid": "9f7e588c66cfd6891f6f507cf6f6596b",
      "css": "phone",
      "code": 59406,
      "src": "fontawesome"
    },
    {
      "uid": "ccc2329632396dc096bb638d4b46fb98",
      "css": "mail-alt",
      "code": 61664,
      "src": "fontawesome"
    },
    {
      "uid": "559647a6f430b3aeadbecd67194451dd",
      "css": "menu",
      "code": 61641,
      "src": "fontawesome"
    },
    {
      "uid": "5211af474d3a9848f67f945e2ccaf143",
      "css": "cancel",
      "code": 59407,
      "src": "fontawesome"
    }
  ]
}